incr_calc_trace.vcd
$date
     Jun 05, 2011       21:54:02
$end

$version
              SystemC 2.2.0 --- Sep  1 2009 15:55:03
$end

$timescale
     1 ps
$end

$scope module SystemC $end
$var wire    1  aaa  clk       $end
$var wire    1  aab  reset       $end
$var wire    8  aac  x_3 [7:0]  $end
$var wire    8  aad  x_2 [7:0]  $end
$var wire    8  aae  x_1 [7:0]  $end
$var wire    1  aaf  valid       $end
$upscope $end
$enddefinitions  $end

$comment
All initial values are dumped below at time 0 sec = 0 timescale units.
$end

$dumpvars
0aaa
0aab
b0 aac
b0 aad
b0 aae
0aaf
$end

#1000
1aaa

#2000
0aaa

#3000
1aaa

#4000
0aaa
1aab

#5000
1aaa
b1 aad
b110 aae
1aaf

#6000
0aaa

#7000
1aaa
b1 aac
b111 aad
b10010 aae

#8000
0aaa

#9000
1aaa
b1000 aac
b11001 aad
b11110 aae

#10000
0aaa
0aab

#11000
1aaa
b0 aac
0aaf

#12000
0aaa

#13000
1aaa

#14000
0aaa

#15000
1aaa

#16000
0aaa
1aab

#17000
1aaa
b1 aad
b110 aae
1aaf

#18000
0aaa

#19000
1aaa
b1 aac
b111 aad
b10010 aae

#20000
0aaa

#21000
1aaa
b1000 aac
b11001 aad
b11110 aae

#22000
0aaa

#23000
1aaa
b100001 aac
b110111 aad
b101010 aae

#24000
0aaa

#25000
1aaa
b1011000 aac
b1100001 aad
b110110 aae

#26000
0aaa

#27000
1aaa
b10111001 aac
b10010111 aad
b1000010 aae

#28000
0aaa

#29000
1aaa
b1010000 aac
b11011001 aad
b1001110 aae

#30000
0aaa

#31000
1aaa
b101001 aac
b100111 aad
b1011010 aae

#32000
0aaa

#33000
1aaa
b1010000 aac
b10000001 aad
b1100110 aae

#34000
0aaa

#35000
1aaa
b11010001 aac
b11100111 aad
b1110010 aae

#36000
0aaa

#37000
1aaa
b10111000 aac
b1011001 aad
b1111110 aae

#38000
0aaa

#39000
1aaa
b10001 aac
b11010111 aad
b10001010 aae

#40000
0aaa

#41000
1aaa
b11101000 aac
b1100001 aad
b10010110 aae

#42000
0aaa

#43000
1aaa
b1001001 aac
b11110111 aad
b10100010 aae

#44000
0aaa

#45000
1aaa
b1000000 aac
b10011001 aad
b10101110 aae

#46000
0aaa

#47000
1aaa
b11011001 aac
b1000111 aad
b10111010 aae

#48000
0aaa

#49000
1aaa
b100000 aac
b1 aad
b11000110 aae

#50000
0aaa

#51000
1aaa
b100001 aac
b11000111 aad
b11010010 aae

#52000
0aaa

#53000
1aaa
b11101000 aac
b10011001 aad
b11011110 aae

#54000
0aaa

#55000
1aaa
b10000001 aac
b1110111 aad
b11101010 aae

#56000
0aaa

#57000
1aaa
b11111000 aac
b1100001 aad
b11110110 aae

#58000
0aaa

#59000
1aaa
b1011001 aac
b1010111 aad
b10 aae

#60000
0aaa

#61000
1aaa
b10110000 aac
b1011001 aad
b1110 aae

#62000
0aaa

#63000
1aaa
b1001 aac
b1100111 aad
b11010 aae

#64000
0aaa

#65000
1aaa
b1110000 aac
b10000001 aad
b100110 aae

#66000
0aaa

#67000
1aaa
b11110001 aac
b10100111 aad
b110010 aae

#68000
0aaa

#69000
1aaa
b10011000 aac
b11011001 aad
b111110 aae

#70000
0aaa

#71000
1aaa
b1110001 aac
b10111 aad
b1001010 aae

#72000
0aaa

#73000
1aaa
b10001000 aac
b1100001 aad
b1010110 aae

#74000
0aaa

#75000
1aaa
b11101001 aac
b10110111 aad
b1100010 aae

#76000
0aaa

#77000
1aaa
b10100000 aac
b11001 aad
b1101110 aae

#78000
0aaa

#79000
1aaa
b10111001 aac
b10000111 aad
b1111010 aae

#80000
0aaa

#81000
1aaa
b1000000 aac
b1 aad
b10000110 aae

#82000
0aaa

#83000
1aaa
b1000001 aac
b10000111 aad
b10010010 aae

#84000
0aaa

#85000
1aaa
b11001000 aac
b11001 aad
b10011110 aae

#86000
0aaa

#87000
1aaa
b11100001 aac
b10110111 aad
b10101010 aae

#88000
0aaa

#89000
1aaa
b10011000 aac
b1100001 aad
b10110110 aae

#90000
0aaa

#91000
1aaa
b11111001 aac
b10111 aad
b11000010 aae

#92000
0aaa

#93000
1aaa
b10000 aac
b11011001 aad
b11001110 aae

#94000
0aaa

#95000
1aaa
b11101001 aac
b10100111 aad
b11011010 aae

#96000
0aaa

#97000
1aaa
b10010000 aac
b10000001 aad
b11100110 aae

#98000
0aaa

#99000
1aaa
b10001 aac
b1100111 aad
b11110010 aae

#100000
0aaa

#101000
1aaa
b1111000 aac
b1011001 aad
b11111110 aae

#102000
0aaa

#103000
1aaa
b11010001 aac
b1010111 aad
b1010 aae

#104000
0aaa

#105000
1aaa
b101000 aac
b1100001 aad
b10110 aae

#106000
0aaa

#107000
1aaa
b10001001 aac
b1110111 aad
b100010 aae

#108000
0aaa

#109000
1aaa
b0 aac
b10011001 aad
b101110 aae

#110000
0aaa

#111000
1aaa
b10011001 aac
b11000111 aad
b111010 aae

#112000
0aaa

#113000
1aaa
b1100000 aac
b1 aad
b1000110 aae

#114000
0aaa

#115000
1aaa
b1100001 aac
b1000111 aad
b1010010 aae

#116000
0aaa

#117000
1aaa
b10101000 aac
b10011001 aad
b1011110 aae

#118000
0aaa

#119000
1aaa
b1000001 aac
b11110111 aad
b1101010 aae

#120000
0aaa

#121000
1aaa
b111000 aac
b1100001 aad
b1110110 aae

#122000
0aaa

#123000
1aaa
b10011001 aac
b11010111 aad
b10000010 aae

#124000
0aaa

#125000
1aaa
b1110000 aac
b1011001 aad
b10001110 aae

#126000
0aaa

#127000
1aaa
b11001001 aac
b11100111 aad
b10011010 aae

#128000
0aaa

#129000
1aaa
b10110000 aac
b10000001 aad
b10100110 aae

#130000
0aaa

#131000
1aaa
b110001 aac
b100111 aad
b10110010 aae

#132000
0aaa

#133000
1aaa
b1011000 aac
b11011001 aad
b10111110 aae

#134000
0aaa

#135000
1aaa
b110001 aac
b10010111 aad
b11001010 aae

#136000
0aaa

#137000
1aaa
b11001000 aac
b1100001 aad
b11010110 aae

#138000
0aaa

#139000
1aaa
b101001 aac
b110111 aad
b11100010 aae

#140000
0aaa

#141000
1aaa
b1100000 aac
b11001 aad
b11101110 aae

#142000
0aaa

#143000
1aaa
b1111001 aac
b111 aad
b11111010 aae

#144000
0aaa

#145000
1aaa
b10000000 aac
b1 aad
b110 aae

#146000
0aaa

#147000
1aaa
b10000001 aac
b111 aad
b10010 aae

#148000
0aaa

#149000
1aaa
b10001000 aac
b11001 aad
b11110 aae

#150000
0aaa

#151000
1aaa
b10100001 aac
b110111 aad
b101010 aae

#152000
0aaa

#153000
1aaa
b11011000 aac
b1100001 aad
b110110 aae

#154000
0aaa

#155000
1aaa
b111001 aac
b10010111 aad
b1000010 aae

#156000
0aaa

#157000
1aaa
b11010000 aac
b11011001 aad
b1001110 aae

#158000
0aaa

#159000
1aaa
b10101001 aac
b100111 aad
b1011010 aae

#160000
0aaa

#161000
1aaa
b11010000 aac
b10000001 aad
b1100110 aae

#162000
0aaa

#163000
1aaa
b1010001 aac
b11100111 aad
b1110010 aae

#164000
0aaa

#165000
1aaa
b111000 aac
b1011001 aad
b1111110 aae

#166000
0aaa

#167000
1aaa
b10010001 aac
b11010111 aad
b10001010 aae

#168000
0aaa

#169000
1aaa
b1101000 aac
b1100001 aad
b10010110 aae

#170000
0aaa

#171000
1aaa
b11001001 aac
b11110111 aad
b10100010 aae

#172000
0aaa

#173000
1aaa
b11000000 aac
b10011001 aad
b10101110 aae

#174000
0aaa

#175000
1aaa
b1011001 aac
b1000111 aad
b10111010 aae

#176000
0aaa

#177000
1aaa
b10100000 aac
b1 aad
b11000110 aae

#178000
0aaa

#179000
1aaa
b10100001 aac
b11000111 aad
b11010010 aae

#180000
0aaa

#181000
1aaa
b1101000 aac
b10011001 aad
b11011110 aae

#182000
0aaa

#183000
1aaa
b1 aac
b1110111 aad
b11101010 aae

#184000
0aaa

#185000
1aaa
b1111000 aac
b1100001 aad
b11110110 aae

#186000
0aaa

#187000
1aaa
b11011001 aac
b1010111 aad
b10 aae

#188000
0aaa

#189000
1aaa
b110000 aac
b1011001 aad
b1110 aae

#190000
0aaa

#191000
1aaa
b10001001 aac
b1100111 aad
b11010 aae

#192000
0aaa

#193000
1aaa
b11110000 aac
b10000001 aad
b100110 aae

#194000
0aaa

#195000
1aaa
b1110001 aac
b10100111 aad
b110010 aae

#196000
0aaa

#197000
1aaa
b11000 aac
b11011001 aad
b111110 aae

#198000
0aaa

#199000
1aaa
b11110001 aac
b10111 aad
b1001010 aae

#200000
0aaa

#201000
1aaa
b1000 aac
b1100001 aad
b1010110 aae

#202000
0aaa

#203000
1aaa
b1101001 aac
b10110111 aad
b1100010 aae

#204000
0aaa

#205000
1aaa
b100000 aac
b11001 aad
b1101110 aae

#206000
0aaa

#207000
1aaa
b111001 aac
b10000111 aad
b1111010 aae

#208000
0aaa

#209000
1aaa
b11000000 aac
b1 aad
b10000110 aae

#210000
0aaa

#211000
1aaa
b11000001 aac
b10000111 aad
b10010010 aae

#212000
0aaa

#213000
1aaa
b1001000 aac
b11001 aad
b10011110 aae

#214000
0aaa

#215000
1aaa
b1100001 aac
b10110111 aad
b10101010 aae

#216000
0aaa

#217000
1aaa
b11000 aac
b1100001 aad
b10110110 aae

#218000
0aaa

#219000
1aaa
b1111001 aac
b10111 aad
b11000010 aae

#220000
0aaa

#221000
1aaa
b10010000 aac
b11011001 aad
b11001110 aae

#222000
0aaa

#223000
1aaa
b1101001 aac
b10100111 aad
b11011010 aae

#224000
0aaa

#225000
1aaa
b10000 aac
b10000001 aad
b11100110 aae

#226000
0aaa

#227000
1aaa
b10010001 aac
b1100111 aad
b11110010 aae

#228000
0aaa

#229000
1aaa
b11111000 aac
b1011001 aad
b11111110 aae

#230000
0aaa

#231000
1aaa
b1010001 aac
b1010111 aad
b1010 aae

#232000
0aaa

#233000
1aaa
b10101000 aac
b1100001 aad
b10110 aae

#234000
0aaa

#235000
1aaa
b1001 aac
b1110111 aad
b100010 aae

#236000
0aaa

#237000
1aaa
b10000000 aac
b10011001 aad
b101110 aae

#238000
0aaa

#239000
1aaa
b11001 aac
b11000111 aad
b111010 aae

#240000
0aaa

#241000
1aaa
b11100000 aac
b1 aad
b1000110 aae

#242000
0aaa

#243000
1aaa
b11100001 aac
b1000111 aad
b1010010 aae

#244000
0aaa

#245000
1aaa
b101000 aac
b10011001 aad
b1011110 aae

#246000
0aaa

#247000
1aaa
b11000001 aac
b11110111 aad
b1101010 aae

#248000
0aaa

#249000
1aaa
b10111000 aac
b1100001 aad
b1110110 aae

#250000
0aaa

#251000
1aaa
b11001 aac
b11010111 aad
b10000010 aae

#252000
0aaa

#253000
1aaa
b11110000 aac
b1011001 aad
b10001110 aae

#254000
0aaa

#255000
1aaa
b1001001 aac
b11100111 aad
b10011010 aae

#256000
0aaa

#257000
1aaa
b110000 aac
b10000001 aad
b10100110 aae

#258000
0aaa

#259000
1aaa
b10110001 aac
b100111 aad
b10110010 aae

#260000
0aaa

#261000
1aaa
b11011000 aac
b11011001 aad
b10111110 aae

#262000
0aaa

#263000
1aaa
b10110001 aac
b10010111 aad
b11001010 aae

#264000
0aaa

#265000
1aaa
b1001000 aac
b1100001 aad
b11010110 aae

#266000
0aaa

#267000
1aaa
b10101001 aac
b110111 aad
b11100010 aae

#268000
0aaa

#269000
1aaa
b11100000 aac
b11001 aad
b11101110 aae

#270000
0aaa

#271000
1aaa
b11111001 aac
b111 aad
b11111010 aae

#272000
0aaa

#273000
1aaa
b0 aac
b1 aad
b110 aae

#274000
0aaa

#275000
1aaa
b1 aac
b111 aad
b10010 aae

#276000
0aaa

#277000
1aaa
b1000 aac
b11001 aad
b11110 aae

#278000
0aaa

#279000
1aaa
b100001 aac
b110111 aad
b101010 aae

#280000
0aaa

#281000
1aaa
b1011000 aac
b1100001 aad
b110110 aae

#282000
0aaa

#283000
1aaa
b10111001 aac
b10010111 aad
b1000010 aae

#284000
0aaa

#285000
1aaa
b1010000 aac
b11011001 aad
b1001110 aae

#286000
0aaa

#287000
1aaa
b101001 aac
b100111 aad
b1011010 aae

#288000
0aaa

#289000
1aaa
b1010000 aac
b10000001 aad
b1100110 aae

#290000
0aaa

#291000
1aaa
b11010001 aac
b11100111 aad
b1110010 aae

#292000
0aaa

#293000
1aaa
b10111000 aac
b1011001 aad
b1111110 aae

#294000
0aaa

#295000
1aaa
b10001 aac
b11010111 aad
b10001010 aae

#296000
0aaa

#297000
1aaa
b11101000 aac
b1100001 aad
b10010110 aae

#298000
0aaa

#299000
1aaa
b1001001 aac
b11110111 aad
b10100010 aae

#300000
0aaa

#301000
1aaa
b1000000 aac
b10011001 aad
b10101110 aae

#302000
0aaa

#303000
1aaa
b11011001 aac
b1000111 aad
b10111010 aae

#304000
0aaa

#305000
1aaa
b100000 aac
b1 aad
b11000110 aae

#306000
0aaa

#307000
1aaa
b100001 aac
b11000111 aad
b11010010 aae

#308000
0aaa

#309000
1aaa
b11101000 aac
b10011001 aad
b11011110 aae

#310000
0aaa

#311000
1aaa
b10000001 aac
b1110111 aad
b11101010 aae

#312000
0aaa

#313000
1aaa
b11111000 aac
b1100001 aad
b11110110 aae

#314000
0aaa

#315000
1aaa
b1011001 aac
b1010111 aad
b10 aae

#316000
0aaa

#317000
1aaa
b10110000 aac
b1011001 aad
b1110 aae

#318000
0aaa

#319000
1aaa
b1001 aac
b1100111 aad
b11010 aae

#320000
0aaa

#321000
1aaa
b1110000 aac
b10000001 aad
b100110 aae

#322000
0aaa

#323000
1aaa
b11110001 aac
b10100111 aad
b110010 aae

#324000
0aaa

#325000
1aaa
b10011000 aac
b11011001 aad
b111110 aae

#326000
0aaa

#327000
1aaa
b1110001 aac
b10111 aad
b1001010 aae

#328000
0aaa

#329000
1aaa
b10001000 aac
b1100001 aad
b1010110 aae

#330000
0aaa

#331000
1aaa
b11101001 aac
b10110111 aad
b1100010 aae

#332000
0aaa

#333000
1aaa
b10100000 aac
b11001 aad
b1101110 aae

#334000
0aaa

#335000
1aaa
b10111001 aac
b10000111 aad
b1111010 aae

#336000
0aaa

#337000
1aaa
b1000000 aac
b1 aad
b10000110 aae

#338000
0aaa

#339000
1aaa
b1000001 aac
b10000111 aad
b10010010 aae

#340000
0aaa

#341000
1aaa
b11001000 aac
b11001 aad
b10011110 aae

#342000
0aaa

#343000
1aaa
b11100001 aac
b10110111 aad
b10101010 aae

#344000
0aaa

#345000
1aaa
b10011000 aac
b1100001 aad
b10110110 aae

#346000
0aaa

#347000
1aaa
b11111001 aac
b10111 aad
b11000010 aae

#348000
0aaa

#349000
1aaa
b10000 aac
b11011001 aad
b11001110 aae

#350000
0aaa

#351000
1aaa
b11101001 aac
b10100111 aad
b11011010 aae

#352000
0aaa

#353000
1aaa
b10010000 aac
b10000001 aad
b11100110 aae

#354000
0aaa

#355000
1aaa
b10001 aac
b1100111 aad
b11110010 aae

#356000
0aaa

#357000
1aaa
b1111000 aac
b1011001 aad
b11111110 aae

#358000
0aaa

#359000
1aaa
b11010001 aac
b1010111 aad
b1010 aae

#360000
0aaa

#361000
1aaa
b101000 aac
b1100001 aad
b10110 aae

#362000
0aaa

#363000
1aaa
b10001001 aac
b1110111 aad
b100010 aae

#364000
0aaa

#365000
1aaa
b0 aac
b10011001 aad
b101110 aae

#366000
0aaa

#367000
1aaa
b10011001 aac
b11000111 aad
b111010 aae

#368000
0aaa

#369000
1aaa
b1100000 aac
b1 aad
b1000110 aae

#370000
0aaa

#371000
1aaa
b1100001 aac
b1000111 aad
b1010010 aae

#372000
0aaa

#373000
1aaa
b10101000 aac
b10011001 aad
b1011110 aae

#374000
0aaa

#375000
1aaa
b1000001 aac
b11110111 aad
b1101010 aae

#376000
0aaa

#377000
1aaa
b111000 aac
b1100001 aad
b1110110 aae

#378000
0aaa

#379000
1aaa
b10011001 aac
b11010111 aad
b10000010 aae

#380000
0aaa

#381000
1aaa
b1110000 aac
b1011001 aad
b10001110 aae

#382000
0aaa

#383000
1aaa
b11001001 aac
b11100111 aad
b10011010 aae

#384000
0aaa

#385000
1aaa
b10110000 aac
b10000001 aad
b10100110 aae

#386000
0aaa

#387000
1aaa
b110001 aac
b100111 aad
b10110010 aae

#388000
0aaa

#389000
1aaa
b1011000 aac
b11011001 aad
b10111110 aae

#390000
0aaa

#391000
1aaa
b110001 aac
b10010111 aad
b11001010 aae

#392000
0aaa

#393000
1aaa
b11001000 aac
b1100001 aad
b11010110 aae

#394000
0aaa

#395000
1aaa
b101001 aac
b110111 aad
b11100010 aae

#396000
0aaa

#397000
1aaa
b1100000 aac
b11001 aad
b11101110 aae

#398000
0aaa

#399000
1aaa
b1111001 aac
b111 aad
b11111010 aae

#400000
0aaa

#401000
1aaa
b10000000 aac
b1 aad
b110 aae

#402000
0aaa

#403000
1aaa
b10000001 aac
b111 aad
b10010 aae

#404000
0aaa

#405000
1aaa
b10001000 aac
b11001 aad
b11110 aae

#406000
0aaa

#407000
1aaa
b10100001 aac
b110111 aad
b101010 aae

#408000
0aaa

#409000
1aaa
b11011000 aac
b1100001 aad
b110110 aae

#410000
0aaa

#411000
1aaa
b111001 aac
b10010111 aad
b1000010 aae

#412000
0aaa

#413000
1aaa
b11010000 aac
b11011001 aad
b1001110 aae

#414000
0aaa

#415000
1aaa
b10101001 aac
b100111 aad
b1011010 aae

#416000
0aaa

#417000
1aaa
b11010000 aac
b10000001 aad
b1100110 aae

#418000
0aaa

#419000
1aaa
b1010001 aac
b11100111 aad
b1110010 aae

#420000
0aaa

#421000
1aaa
b111000 aac
b1011001 aad
b1111110 aae

#422000
0aaa

#423000
1aaa
b10010001 aac
b11010111 aad
b10001010 aae

#424000
0aaa

#425000
1aaa
b1101000 aac
b1100001 aad
b10010110 aae

#426000
0aaa

#427000
1aaa
b11001001 aac
b11110111 aad
b10100010 aae

#428000
0aaa

#429000
1aaa
b11000000 aac
b10011001 aad
b10101110 aae

#430000
0aaa

#431000
1aaa
b1011001 aac
b1000111 aad
b10111010 aae

#432000
0aaa

#433000
1aaa
b10100000 aac
b1 aad
b11000110 aae

#434000
0aaa

#435000
1aaa
b10100001 aac
b11000111 aad
b11010010 aae

#436000
0aaa

#437000
1aaa
b1101000 aac
b10011001 aad
b11011110 aae

#438000
0aaa

#439000
1aaa
b1 aac
b1110111 aad
b11101010 aae

#440000
0aaa

#441000
1aaa
b1111000 aac
b1100001 aad
b11110110 aae

#442000
0aaa

#443000
1aaa
b11011001 aac
b1010111 aad
b10 aae

#444000
0aaa

#445000
1aaa
b110000 aac
b1011001 aad
b1110 aae

#446000
0aaa

#447000
1aaa
b10001001 aac
b1100111 aad
b11010 aae

#448000
0aaa

#449000
1aaa
b11110000 aac
b10000001 aad
b100110 aae

#450000
0aaa

#451000
1aaa
b1110001 aac
b10100111 aad
b110010 aae

#452000
0aaa

#453000
1aaa
b11000 aac
b11011001 aad
b111110 aae

#454000
0aaa

#455000
1aaa
b11110001 aac
b10111 aad
b1001010 aae

#456000
0aaa

#457000
1aaa
b1000 aac
b1100001 aad
b1010110 aae

#458000
0aaa

#459000
1aaa
b1101001 aac
b10110111 aad
b1100010 aae

#460000
0aaa

#461000
1aaa
b100000 aac
b11001 aad
b1101110 aae

#462000
0aaa

#463000
1aaa
b111001 aac
b10000111 aad
b1111010 aae

#464000
0aaa

#465000
1aaa
b11000000 aac
b1 aad
b10000110 aae

#466000
0aaa

#467000
1aaa
b11000001 aac
b10000111 aad
b10010010 aae

#468000
0aaa

#469000
1aaa
b1001000 aac
b11001 aad
b10011110 aae

#470000
0aaa

#471000
1aaa
b1100001 aac
b10110111 aad
b10101010 aae

#472000
0aaa

#473000
1aaa
b11000 aac
b1100001 aad
b10110110 aae

#474000
0aaa

#475000
1aaa
b1111001 aac
b10111 aad
b11000010 aae

#476000
0aaa

#477000
1aaa
b10010000 aac
b11011001 aad
b11001110 aae

#478000
0aaa

#479000
1aaa
b1101001 aac
b10100111 aad
b11011010 aae

#480000
0aaa

#481000
1aaa
b10000 aac
b10000001 aad
b11100110 aae

#482000
0aaa

#483000
1aaa
b10010001 aac
b1100111 aad
b11110010 aae

#484000
0aaa

#485000
1aaa
b11111000 aac
b1011001 aad
b11111110 aae

#486000
0aaa

#487000
1aaa
b1010001 aac
b1010111 aad
b1010 aae

#488000
0aaa

#489000
1aaa
b10101000 aac
b1100001 aad
b10110 aae

#490000
0aaa

#491000
1aaa
b1001 aac
b1110111 aad
b100010 aae

#492000
0aaa

#493000
1aaa
b10000000 aac
b10011001 aad
b101110 aae

#494000
0aaa

#495000
1aaa
b11001 aac
b11000111 aad
b111010 aae

#496000
0aaa

#497000
1aaa
b11100000 aac
b1 aad
b1000110 aae

#498000
0aaa

#499000
1aaa
b11100001 aac
b1000111 aad
b1010010 aae

#500000
0aaa

#501000
1aaa
b101000 aac
b10011001 aad
b1011110 aae

#502000
0aaa

#503000
1aaa
b11000001 aac
b11110111 aad
b1101010 aae

#504000
0aaa

#505000
1aaa
b10111000 aac
b1100001 aad
b1110110 aae

#506000
0aaa

#507000
1aaa
b11001 aac
b11010111 aad
b10000010 aae

#508000
0aaa

#509000
1aaa
b11110000 aac
b1011001 aad
b10001110 aae

#510000
0aaa

#511000
1aaa
b1001001 aac
b11100111 aad
b10011010 aae

#512000
0aaa

#513000
1aaa
b110000 aac
b10000001 aad
b10100110 aae

#514000
0aaa

#515000
1aaa
b10110001 aac
b100111 aad
b10110010 aae

#516000
0aaa

#517000
1aaa
b11011000 aac
b11011001 aad
b10111110 aae

#518000
0aaa

#519000
1aaa
b10110001 aac
b10010111 aad
b11001010 aae

#520000
0aaa

#521000
1aaa
b1001000 aac
b1100001 aad
b11010110 aae

#522000
0aaa

#523000
1aaa
b10101001 aac
b110111 aad
b11100010 aae

#524000
0aaa

#525000
1aaa
b11100000 aac
b11001 aad
b11101110 aae

#526000
0aaa

#527000
1aaa
b11111001 aac
b111 aad
b11111010 aae

#528000
0aaa

#529000
1aaa
b0 aac
b1 aad
b110 aae

#530000
0aaa

#531000
1aaa
b1 aac
b111 aad
b10010 aae

#532000
0aaa

#533000
1aaa
b1000 aac
b11001 aad
b11110 aae

#534000
0aaa

#535000
1aaa
b100001 aac
b110111 aad
b101010 aae

#536000
0aaa

#537000
1aaa
b1011000 aac
b1100001 aad
b110110 aae

#538000
0aaa

#539000
1aaa
b10111001 aac
b10010111 aad
b1000010 aae

#540000
0aaa

#541000
1aaa
b1010000 aac
b11011001 aad
b1001110 aae

#542000
0aaa

#543000
1aaa
b101001 aac
b100111 aad
b1011010 aae

#544000
0aaa

#545000
1aaa
b1010000 aac
b10000001 aad
b1100110 aae

#546000
0aaa

#547000
1aaa
b11010001 aac
b11100111 aad
b1110010 aae

#548000
0aaa

#549000
1aaa
b10111000 aac
b1011001 aad
b1111110 aae

#550000
0aaa

#551000
1aaa
b10001 aac
b11010111 aad
b10001010 aae

#552000
0aaa

#553000
1aaa
b11101000 aac
b1100001 aad
b10010110 aae

#554000
0aaa

#555000
1aaa
b1001001 aac
b11110111 aad
b10100010 aae

#556000
0aaa

#557000
1aaa
b1000000 aac
b10011001 aad
b10101110 aae

#558000
0aaa

#559000
1aaa
b11011001 aac
b1000111 aad
b10111010 aae

#560000
0aaa

#561000
1aaa
b100000 aac
b1 aad
b11000110 aae

#562000
0aaa

#563000
1aaa
b100001 aac
b11000111 aad
b11010010 aae

#564000
0aaa

#565000
1aaa
b11101000 aac
b10011001 aad
b11011110 aae

#566000
0aaa

#567000
1aaa
b10000001 aac
b1110111 aad
b11101010 aae

#568000
0aaa

#569000
1aaa
b11111000 aac
b1100001 aad
b11110110 aae

#570000
0aaa

#571000
1aaa
b1011001 aac
b1010111 aad
b10 aae

#572000
0aaa

#573000
1aaa
b10110000 aac
b1011001 aad
b1110 aae

#574000
0aaa

#575000
1aaa
b1001 aac
b1100111 aad
b11010 aae

#576000
0aaa

#577000
1aaa
b1110000 aac
b10000001 aad
b100110 aae

#578000
0aaa

#579000
1aaa
b11110001 aac
b10100111 aad
b110010 aae

#580000
0aaa

#581000
1aaa
b10011000 aac
b11011001 aad
b111110 aae

#582000
0aaa

#583000
1aaa
b1110001 aac
b10111 aad
b1001010 aae

#584000
0aaa

#585000
1aaa
b10001000 aac
b1100001 aad
b1010110 aae

#586000
0aaa

#587000
1aaa
b11101001 aac
b10110111 aad
b1100010 aae

#588000
0aaa

#589000
1aaa
b10100000 aac
b11001 aad
b1101110 aae

#590000
0aaa

#591000
1aaa
b10111001 aac
b10000111 aad
b1111010 aae

#592000
0aaa

#593000
1aaa
b1000000 aac
b1 aad
b10000110 aae

#594000
0aaa

#595000
1aaa
b1000001 aac
b10000111 aad
b10010010 aae

#596000
0aaa

#597000
1aaa
b11001000 aac
b11001 aad
b10011110 aae

#598000
0aaa

#599000
1aaa
b11100001 aac
b10110111 aad
b10101010 aae

#600000
0aaa

#601000
1aaa
b10011000 aac
b1100001 aad
b10110110 aae

#602000
0aaa

#603000
1aaa
b11111001 aac
b10111 aad
b11000010 aae

#604000
0aaa

#605000
1aaa
b10000 aac
b11011001 aad
b11001110 aae

#606000
0aaa

#607000
1aaa
b11101001 aac
b10100111 aad
b11011010 aae

#608000
0aaa

#609000
1aaa
b10010000 aac
b10000001 aad
b11100110 aae

#610000
0aaa

#611000
1aaa
b10001 aac
b1100111 aad
b11110010 aae

#612000
0aaa

#613000
1aaa
b1111000 aac
b1011001 aad
b11111110 aae

#614000
0aaa

#615000
1aaa
b11010001 aac
b1010111 aad
b1010 aae

#616000
0aaa

#617000
1aaa
b101000 aac
b1100001 aad
b10110 aae

#618000
0aaa

#619000
1aaa
b10001001 aac
b1110111 aad
b100010 aae

#620000
0aaa

#621000
1aaa
b0 aac
b10011001 aad
b101110 aae

#622000
0aaa

#623000
1aaa
b10011001 aac
b11000111 aad
b111010 aae

#624000
0aaa

#625000
1aaa
b1100000 aac
b1 aad
b1000110 aae

#626000
0aaa

#627000
1aaa
b1100001 aac
b1000111 aad
b1010010 aae

#628000
0aaa

#629000
1aaa
b10101000 aac
b10011001 aad
b1011110 aae

#630000
0aaa

#631000
1aaa
b1000001 aac
b11110111 aad
b1101010 aae

#632000
0aaa

#633000
1aaa
b111000 aac
b1100001 aad
b1110110 aae

#634000
0aaa

#635000
1aaa
b10011001 aac
b11010111 aad
b10000010 aae

#636000
0aaa

#637000
1aaa
b1110000 aac
b1011001 aad
b10001110 aae

#638000
0aaa

#639000
1aaa
b11001001 aac
b11100111 aad
b10011010 aae

#640000
0aaa

#641000
1aaa
b10110000 aac
b10000001 aad
b10100110 aae

#642000
0aaa

#643000
1aaa
b110001 aac
b100111 aad
b10110010 aae

#644000
0aaa

#645000
1aaa
b1011000 aac
b11011001 aad
b10111110 aae

#646000
0aaa

#647000
1aaa
b110001 aac
b10010111 aad
b11001010 aae

#648000
0aaa

#649000
1aaa
b11001000 aac
b1100001 aad
b11010110 aae

#650000
0aaa

#651000
1aaa
b101001 aac
b110111 aad
b11100010 aae

#652000
0aaa

#653000
1aaa
b1100000 aac
b11001 aad
b11101110 aae

#654000
0aaa

#655000
1aaa
b1111001 aac
b111 aad
b11111010 aae

#656000
0aaa

#657000
1aaa
b10000000 aac
b1 aad
b110 aae

#658000
0aaa

#659000
1aaa
b10000001 aac
b111 aad
b10010 aae

#660000
0aaa

#661000
1aaa
b10001000 aac
b11001 aad
b11110 aae

#662000
0aaa

#663000
1aaa
b10100001 aac
b110111 aad
b101010 aae

#664000
0aaa

#665000
1aaa
b11011000 aac
b1100001 aad
b110110 aae

#666000
0aaa

#667000
1aaa
b111001 aac
b10010111 aad
b1000010 aae

#668000
0aaa

#669000
1aaa
b11010000 aac
b11011001 aad
b1001110 aae

#670000
0aaa

#671000
1aaa
b10101001 aac
b100111 aad
b1011010 aae

#672000
0aaa

#673000
1aaa
b11010000 aac
b10000001 aad
b1100110 aae

#674000
0aaa

#675000
1aaa
b1010001 aac
b11100111 aad
b1110010 aae

#676000
0aaa

#677000
1aaa
b111000 aac
b1011001 aad
b1111110 aae

#678000
0aaa

#679000
1aaa
b10010001 aac
b11010111 aad
b10001010 aae

#680000
0aaa

#681000
1aaa
b1101000 aac
b1100001 aad
b10010110 aae

#682000
0aaa

#683000
1aaa
b11001001 aac
b11110111 aad
b10100010 aae

#684000
0aaa

#685000
1aaa
b11000000 aac
b10011001 aad
b10101110 aae

#686000
0aaa

#687000
1aaa
b1011001 aac
b1000111 aad
b10111010 aae

#688000
0aaa

#689000
1aaa
b10100000 aac
b1 aad
b11000110 aae

#690000
0aaa

#691000
1aaa
b10100001 aac
b11000111 aad
b11010010 aae

#692000
0aaa

#693000
1aaa
b1101000 aac
b10011001 aad
b11011110 aae

#694000
0aaa

#695000
1aaa
b1 aac
b1110111 aad
b11101010 aae

#696000
0aaa

#697000
1aaa
b1111000 aac
b1100001 aad
b11110110 aae

#698000
0aaa

#699000
1aaa
b11011001 aac
b1010111 aad
b10 aae

#700000
0aaa

#701000
1aaa
b110000 aac
b1011001 aad
b1110 aae

#702000
0aaa

#703000
1aaa
b10001001 aac
b1100111 aad
b11010 aae

#704000
0aaa

#705000
1aaa
b11110000 aac
b10000001 aad
b100110 aae

#706000
0aaa

#707000
1aaa
b1110001 aac
b10100111 aad
b110010 aae

#708000
0aaa

#709000
1aaa
b11000 aac
b11011001 aad
b111110 aae

#710000
0aaa

#711000
1aaa
b11110001 aac
b10111 aad
b1001010 aae

#712000
0aaa

#713000
1aaa
b1000 aac
b1100001 aad
b1010110 aae

#714000
0aaa

#715000
1aaa
b1101001 aac
b10110111 aad
b1100010 aae

#716000
0aaa

#717000
1aaa
b100000 aac
b11001 aad
b1101110 aae

#718000
0aaa

#719000
1aaa
b111001 aac
b10000111 aad
b1111010 aae

#720000
0aaa

